{
  "variables": {
    "aws_access_key": null,
    "aws_secret_key": null,
    "aws_session_token": null,
    "aws_region": null,
    "vpc_id": null,
    "subnet_id": null,
    "base_ami": null,

    "config_location":          "/etc/sysconfig/atl",
    "log_location":             "/var/log/atl.log",
    "name":                     "confluence",
    "short_display_name":       "Confluence",
    "full_display_name":        "Atlassian Confluence",
    "version":                  "latest",
    "user":                     "confluence",
    "user_id":                  "1001",
    "db_name":                  "confluence",
    "db_user":                  "atlconfluence",
    "app_data_dir":             "/var/atlassian/application-data",
    "home_dir":                 "/var/atlassian/application-data/confluence",
    "db_dir":                   "/var/atlassian/application-data/db",
    "install_dir":              "/opt/atlassian/confluence",
    "instance_store_block_device": "/dev/xvdb",
    "instance_store_mount":     "/media/ephemeral0",
    "app_data_mount":           "/media/atl",
    "app_data_block_device":    "/dev/xvdf",
    "app_data_fs_type":         "unknown",

    "release_s3_bucket":        "atlassian-software",
    "release_s3_path":          "releases/confluence",

    "postgres_version":         "9.3"
  },

  "builders": [
  {
    "type": "amazon-ebs",
    "communicator": "ssh",
    "ssh_pty": "true",

    "ami_name": "{{user `full_display_name`}} {{isotime \"2006.01.02_1504\"}} (HVM)",
    "ami_description": "The {{user `full_display_name`}} AMI is an EBS-backed image based off Amazon Linux AMI (HVM). On first boot it downloads and installs the latest version of {{user `short_display_name`}} ready for you to use.",

    "tags": {
      "Name": "{{user `full_display_name`}} {{isotime \"2006.01.02_1504\"}} (HVM)",
      "business_unit": "RD:Dev Tools Engineering",
      "resource_owner": "dluong",
      "service_name": "aws_ami_packer_builder"
    },

    "access_key": "{{user `aws_access_key`}}",
    "secret_key": "{{user `aws_secret_key`}}",
    "token": "{{user `aws_session_token`}}",

    "region": "{{ user `aws_region` }}",
    "source_ami": "{{ user `base_ami` }}",
    "instance_type": "m3.medium",
    "vpc_id": "{{user `vpc_id`}}",
    "subnet_id": "{{user `subnet_id`}}",
    "associate_public_ip_address": true,

    "ssh_username": "ec2-user",

    "launch_block_device_mappings": [{
      "device_name": "/dev/xvda",
      "volume_type": "gp2",
      "volume_size": 50,
      "delete_on_termination": true
    }, {
      "device_name": "/dev/xvdb",
      "virtual_name": "ephemeral0"
    }],

    "ami_block_device_mappings": [{
      "device_name": "/dev/xvda",
      "volume_type": "gp2",
      "volume_size": 50,
      "delete_on_termination": true
    }, {
      "device_name": "/dev/xvdf",
      "volume_type": "gp2",
      "volume_size": 100,
      "delete_on_termination": true
    }, {
      "device_name": "/dev/xvdb",
      "virtual_name": "ephemeral0"
    }]
  }],

  "provisioners": [{
    "type": "shell",
    "inline": "sudo yum -y -q update"
  },{
    "type": "shell",
    "inline": "sudo yum -y -q remove java-1.7.0-openjdk.x86_64"
  },{
    "type": "shell",
    "script": "scripts/install-jq.sh"
  },{
    "type": "shell",
    "script": "scripts/install-xmllint.sh"
  }, {
    "type": "shell",
    "script": "scripts/install-nginx.sh"
  }, {
    "type": "shell",
    "script": "scripts/install-postgres.sh",
    "environment_vars": [
      "VERSION={{user `postgres_version`}}"
    ]
  },  {
    "type": "file",
    "source": "keys/RPM-GPG-KEY-zfsonlinux.key",
    "destination": "/tmp/RPM-GPG-KEY-zfsonlinux.key"  
    }, {
    "type": "shell",
    "script": "scripts/install-zfs.sh",
    "environment_vars": [
      "APP_DATA_FS_TYPE={{user `app_data_fs_type`}}"
    ]
  }, {
    "type": "shell",
    "script": "scripts/write-product-config.sh",
    "environment_vars": [
      "LOCATION={{user `config_location`}}",
      "LOG={{user `log_location`}}",
      "VERSION={{user `version`}}",
      "USER={{user `user`}}",
      "HOME={{user `home_dir`}}",
      "APP_DATA_BLOCK_DEVICE={{user `app_data_block_device`}}",
      "APP_DATA_MOUNT={{user `app_data_mount`}}",
      "APP_DATA_FS_TYPE={{user `app_data_fs_type`}}",
      "APP_DATA_DIR={{user `app_data_dir`}}",
      "NAME={{user `name`}}",
      "SHORT_DISPLAY_NAME={{user `short_display_name`}}",
      "FULL_DISPLAY_NAME={{user `full_display_name`}}",
      "DB_DIR={{user `db_dir`}}",
      "DB_NAME={{user `db_name`}}",
      "DB_USER={{user `db_user`}}",
      "INSTALL_DIR={{user `install_dir`}}",
      "INSTANCE_STORE_BLOCK_DEVICE={{user `instance_store_block_device`}}",
      "INSTANCE_STORE_MOUNT={{user `instance_store_mount`}}",
      "RELEASE_S3_BUCKET={{user `release_s3_bucket`}}",
      "RELEASE_S3_PATH={{user `release_s3_path`}}"
    ]
  }, {
    "type": "file",
    "source": "scripts/init.d/atl-functions",
    "destination": "/tmp/atl-functions"
  }, {
    "type": "shell",
    "inline": "sudo mv /tmp/atl-functions /etc/init.d/atl-functions && sudo chown root:root /etc/init.d/atl-functions"
  },{
    "type": "file",
    "source": "scripts/init.d/atl-confluence-common",
    "destination": "/tmp/atl-confluence-common"
  }, {
    "type": "shell",
    "inline": "sudo mv /tmp/atl-confluence-common /etc/init.d/atl-confluence-common && sudo chown root:root /etc/init.d/atl-confluence-common"
  }, {
    "type": "file",
    "source": "scripts/bin/atl-update-host-name.sh",
    "destination": "/tmp/atl-update-host-name.sh"
  }, {
    "type": "shell",
    "inline": "sudo mkdir -p /opt/atlassian/bin && sudo mv /tmp/atl-update-host-name.sh /opt/atlassian/bin/atl-update-host-name.sh && sudo chmod +x /opt/atlassian/bin/atl-update-host-name.sh && sudo chown root:root /opt/atlassian/bin/atl-update-host-name.sh"
  }, {
    "type": "file",
    "source": "scripts/init.d/atl-init-10-volume.sh",
    "destination": "/tmp/atl-init-10-volume.sh"
  }, {
    "type": "shell",
    "script": "scripts/install-atl-init-service.sh",
    "environment_vars": [
      "INIT_SCRIPT=/tmp/atl-init-10-volume.sh"
    ]
  }, {
    "type": "file",
    "source": "scripts/init.d/atl-init-30-db.sh",
    "destination": "/tmp/atl-init-30-db.sh"
  }, {
    "type": "shell",
    "script": "scripts/install-atl-init-db-service.sh",
    "environment_vars": [
      "POSTGRES_VERSION={{user `postgres_version`}}",
      "INIT_SCRIPT=/tmp/atl-init-30-db.sh"
    ]
  }, {
    "type": "file",
    "source": "scripts/init.d/atl-init-20-instance-store.sh",
    "destination": "/tmp/atl-init-20-instance-store.sh"
  },{
    "type": "shell",
    "script": "scripts/install-atl-init-service.sh",
    "environment_vars": [
      "INIT_SCRIPT=/tmp/atl-init-20-instance-store.sh"
    ]
  }, {
    "type": "file",
    "source": "scripts/init.d/atl-init-confluence.sh",
    "destination": "/tmp/atl-init-confluence.sh"
  }, {
    "type": "shell",
    "script": "scripts/install-atl-init-product-service.sh",
    "environment_vars": [
      "POSTGRES_VERSION={{user `postgres_version`}}",
      "INIT_SCRIPT=/tmp/atl-init-confluence.sh"
    ]
  }, {
    "type": "file",
    "source": "scripts/init.d/atl-init-synchrony.sh",
    "destination": "/tmp/atl-init-synchrony.sh"
  }, {
    "type": "shell",
    "script": "scripts/install-atl-init-product-service.sh",
    "environment_vars": [
      "POSTGRES_VERSION={{user `postgres_version`}}",
      "INIT_SCRIPT=/tmp/atl-init-synchrony.sh"
    ]
  }, {
    "type": "file",
    "source": "scripts/init.d/atl-init-40-products.sh",
    "destination": "/tmp/atl-init-40-products.sh"
  }, {
    "type": "shell",
    "script": "scripts/install-atl-init-service.sh",
    "environment_vars": [
      "INIT_SCRIPT=/tmp/atl-init-40-products.sh"
    ]
  }, {
      "type": "file",
      "source": "config/confluence-collectd.conf",
      "destination": "/tmp/collectd.conf"
  }, {
      "type": "shell",
      "script": "scripts/install-collectd.sh"
  }, {
    "type": "file",
    "source": "html/index.html",
    "destination": "/tmp/index.html"
  }, {
    "type": "shell",
    "inline": "sudo chown root:root /tmp/index.html && sudo mv -f /tmp/index.html /usr/share/nginx/html/index.html"
  }, {
    "type": "file",
    "source": "html/error.html",
    "destination": "/tmp/error.html"
  }, {
    "type": "shell",
    "inline": "sudo chown root:root /tmp/error.html && sudo mv -f /tmp/error.html /usr/share/nginx/html/error.html"
  }, {
    "type": "file",
    "source": "html/hostnamechanged.html",
    "destination": "/tmp/hostnamechanged.html"
  }, {
    "type": "shell",
    "inline": "sudo chown root:root /tmp/hostnamechanged.html && sudo mv -f /tmp/hostnamechanged.html /usr/share/nginx/html/hostnamechanged.html"
  }, {
    "type": "shell",
    "inline": "sudo rm -rf /root/.ssh /home/ec2-user/.ssh"
  }, {
    "type": "shell",
    "inline": "sudo cp -f /dev/null /var/log/lastlog"
    }
  ]
}
